<svg xmlns="http://www.w3.org/2000/svg" xmlns:xlink="http://www.w3.org/1999/xlink" width="54.381" height="53.891" viewBox="0 0 54.381 53.891">
  <defs>
    <filter id="Path_Copy" x="0" y="0" width="54.381" height="53.891" filterUnits="userSpaceOnUse">
      <feOffset dy="2" input="SourceAlpha"/>
      <feGaussianBlur stdDeviation="2" result="blur"/>
      <feFlood flood-color="#00a7e7" flood-opacity="0.149"/>
      <feComposite operator="in" in2="blur"/>
      <feComposite in="SourceGraphic"/>
    </filter>
  </defs>
  <g transform="matrix(1, 0, 0, 1, 0, 0)" filter="url(#Path_Copy)">
    <path id="Path_Copy-2" data-name="Path Copy" d="M41.558,20.631l-1.873-1.873a1.136,1.136,0,0,0-1.608,0L23.405,33.43V1.135A1.138,1.138,0,0,0,22.27,0H19.621a1.138,1.138,0,0,0-1.135,1.135V33.43L3.815,18.758a1.136,1.136,0,0,0-1.608,0L.333,20.631a1.136,1.136,0,0,0,0,1.608L20.142,42.047a1.136,1.136,0,0,0,1.608,0L41.558,22.239A1.136,1.136,0,0,0,41.558,20.631Z" transform="translate(6 45.89) rotate(-90)" fill="#00a7e7"/>
  </g>
</svg>
