<svg width="19" height="27" viewBox="0 0 19 27" fill="none" xmlns="http://www.w3.org/2000/svg">
<path fill-rule="evenodd" clip-rule="evenodd" d="M12.0209 0H6.97917C6.55146 0 6.20471 0.351964 6.20471 0.786102V1.79598H5.02496C4.59725 1.79598 4.2505 2.14795 4.2505 2.58208V3.43108H0.821209C0.393503 3.43108 0.0467529 3.78304 0.0467529 4.21718V26.0462C0.0467529 26.4803 0.393503 26.8323 0.821209 26.8323H18.1788C18.6065 26.8323 18.9533 26.4803 18.9533 26.0462V4.21718C18.9533 3.78304 18.6065 3.43108 18.1788 3.43108H14.75V2.58208C14.75 2.14795 14.4033 1.79598 13.9756 1.79598H12.7953V0.786102C12.7953 0.351964 12.4486 0 12.0209 0ZM17.4044 5.00328V25.2601H1.59567V5.00328H4.2505V5.78938C4.2505 6.22352 4.59725 6.57549 5.02496 6.57549H13.9756C14.4033 6.57549 14.75 6.22352 14.75 5.78938V5.00328H17.4044ZM13.2012 5.00328V3.36819H12.0209C11.5932 3.36819 11.2464 3.01622 11.2464 2.58208V1.5722H7.75363V2.58208C7.75363 3.01622 7.40688 3.36819 6.97917 3.36819H5.79942V5.00328H13.2012Z" fill="white"/>
<path fill-rule="evenodd" clip-rule="evenodd" d="M4.90324 8.6039C6.1179 7.37098 8.15306 7.269 9.50021 8.63409C10.8405 7.2713 12.8745 7.36322 14.0969 8.60406C14.7069 9.22314 15.0428 10.0463 15.0428 10.922C15.0428 11.7976 14.7069 12.6208 14.0969 13.2399L10.0479 17.3498C9.74545 17.6568 9.25512 17.6568 8.95267 17.3499L4.90319 13.2399C4.29323 12.6208 3.95727 11.7976 3.95721 10.922C3.95721 10.0492 4.29101 9.22849 4.89725 8.61003L4.90324 8.6039ZM9.50021 15.6823L13.0016 12.1282C13.6585 11.4614 13.6584 10.3825 13.0017 9.71582C12.3448 9.04915 11.2817 9.04915 10.6249 9.71598L10.048 10.3017C9.74555 10.6087 9.25496 10.6086 8.95267 10.3018L8.37518 9.71561C7.72133 9.05193 6.65821 9.05057 6.00266 9.71142L5.99837 9.71577C5.34148 10.3825 5.34158 11.4615 5.99842 12.1282L9.50021 15.6823Z" fill="white"/>
<path d="M3.9188 20.7248H9.51885C9.94655 20.7248 10.2933 20.3728 10.2933 19.9387C10.2933 19.5046 9.94655 19.1526 9.51885 19.1526H3.9188C3.4911 19.1526 3.14435 19.5046 3.14435 19.9387C3.14435 20.3728 3.4911 20.7248 3.9188 20.7248Z" fill="white"/>
<path d="M15.081 22.2966H3.91905C3.49134 22.2966 3.14459 22.6486 3.14459 23.0827C3.14459 23.5169 3.49134 23.8688 3.91905 23.8688H15.081C15.5087 23.8688 15.8554 23.5169 15.8554 23.0827C15.8554 22.6486 15.5087 22.2966 15.081 22.2966Z" fill="white"/>
<path d="M11.8422 19.9387C11.8422 20.3728 12.1889 20.7248 12.6166 20.7248H15.0809C15.5086 20.7248 15.8554 20.3728 15.8554 19.9387C15.8554 19.5046 15.5086 19.1526 15.0809 19.1526H12.6166C12.1889 19.1526 11.8422 19.5046 11.8422 19.9387Z" fill="white"/>
</svg>
