<svg width="25" height="24" viewBox="0 0 25 24" fill="none" xmlns="http://www.w3.org/2000/svg">
<path fill-rule="evenodd" clip-rule="evenodd" d="M14.2651 1.73119C15.2028 1.25286 16.2596 1 17.3212 1C21.0039 1.00004 24 3.96391 24 7.60698C24 9.89348 23.4036 12.1399 22.2272 14.2838C21.2959 15.981 20.0015 17.616 18.3797 19.1435C15.6347 21.7291 12.9237 23.1029 12.8096 23.1601C12.7123 23.2089 12.6062 23.2333 12.5 23.2333C12.3938 23.2333 12.2877 23.2089 12.1904 23.1601C12.0763 23.1029 9.36535 21.7292 6.62022 19.1436C4.9985 17.6161 3.70403 15.981 2.7728 14.2839C1.59643 12.1399 1 9.89352 1 7.60698C1 3.96391 3.99611 1.00004 7.67885 1.00004C8.7404 1.00004 9.79719 1.2529 10.7349 1.73124C11.3893 2.06501 11.9885 2.50926 12.5 3.03635C13.0115 2.50922 13.6107 2.06497 14.2651 1.73119ZM12.4996 21.786C13.2742 21.356 15.3823 20.103 17.4622 18.1377C20.8919 14.8971 22.631 11.354 22.631 7.60698C22.631 4.71066 20.249 2.35431 17.3211 2.35431C15.6205 2.35431 14.0638 3.13149 13.0502 4.48651C12.9211 4.65907 12.717 4.76087 12.5 4.76087C12.283 4.76087 12.0789 4.65911 11.9498 4.48651C10.9361 3.13149 9.3795 2.35435 7.67885 2.35435C4.75102 2.35435 2.36904 4.7107 2.36904 7.60698C2.36904 11.3643 4.11699 14.9157 7.56425 18.1627C9.6414 20.1191 11.7295 21.3592 12.4996 21.786Z" fill="white"/>
<path d="M17.3212 1L17.3212 0.5H17.3212V1ZM14.2651 1.73119L14.4923 2.1766L14.4923 2.17659L14.2651 1.73119ZM22.2272 14.2838L21.7888 14.0433L21.7888 14.0433L22.2272 14.2838ZM18.3797 19.1435L18.0369 18.7796L18.0369 18.7796L18.3797 19.1435ZM12.8096 23.1601L12.5855 22.7131L12.5853 22.7132L12.8096 23.1601ZM12.1904 23.1601L11.9661 23.607L11.9663 23.6071L12.1904 23.1601ZM6.62022 19.1436L6.96304 18.7796L6.62022 19.1436ZM2.7728 14.2839L2.33445 14.5244L2.33445 14.5244L2.7728 14.2839ZM10.7349 1.73124L10.9621 1.28584L10.9621 1.28583L10.7349 1.73124ZM12.5 3.03635L12.1412 3.38455L12.5 3.75434L12.8588 3.38454L12.5 3.03635ZM17.4622 18.1377L17.1188 17.7743L17.1188 17.7743L17.4622 18.1377ZM12.4996 21.786L12.2573 22.2233L12.4999 22.3577L12.7423 22.2231L12.4996 21.786ZM13.0502 4.48651L13.4506 4.78605L13.4506 4.786L13.0502 4.48651ZM11.9498 4.48651L12.3501 4.18702L12.3501 4.18701L11.9498 4.48651ZM7.56425 18.1627L7.22143 18.5267L7.22144 18.5267L7.56425 18.1627ZM17.3212 0.5C16.1814 0.5 15.0466 0.771253 14.0379 1.28579L14.4923 2.17659C15.359 1.73446 16.3379 1.5 17.3212 1.5V0.5ZM24.5 7.60698C24.5 3.68268 21.2749 0.500048 17.3212 0.5L17.3212 1.5C20.7329 1.50004 23.5 4.24514 23.5 7.60698H24.5ZM22.6655 14.5244C23.8795 12.312 24.5 9.98338 24.5 7.60698H23.5C23.5 9.80357 22.9277 11.9678 21.7888 14.0433L22.6655 14.5244ZM18.7225 19.5075C20.3768 17.9494 21.7056 16.2738 22.6655 14.5243L21.7888 14.0433C20.8862 15.6883 19.6262 17.2827 18.0369 18.7796L18.7225 19.5075ZM13.0336 23.607C13.169 23.5392 15.9278 22.1399 18.7226 19.5075L18.0369 18.7796C15.3416 21.3183 12.6784 22.6665 12.5855 22.7131L13.0336 23.607ZM12.5 23.7333C12.6829 23.7333 12.8659 23.6912 13.0339 23.6069L12.5853 22.7132C12.5586 22.7266 12.5294 22.7333 12.5 22.7333V23.7333ZM11.9663 23.6071C12.1342 23.6912 12.3171 23.7333 12.5 23.7333V22.7333C12.4706 22.7333 12.4413 22.7266 12.4144 22.7131L11.9663 23.6071ZM6.2774 19.5075C9.07229 22.14 11.8311 23.5392 11.9661 23.607L12.4147 22.7132C12.3216 22.6665 9.65841 21.3183 6.96304 18.7796L6.2774 19.5075ZM2.33445 14.5244C3.29433 16.2738 4.6232 17.9495 6.2774 19.5075L6.96304 18.7796C5.37379 17.2827 4.11372 15.6883 3.21114 14.0433L2.33445 14.5244ZM0.5 7.60698C0.5 9.98342 1.12053 12.312 2.33445 14.5244L3.21115 14.0433C2.07233 11.9678 1.5 9.80362 1.5 7.60698H0.5ZM7.67885 0.500044C3.72508 0.500044 0.5 3.68268 0.5 7.60698H1.5C1.5 4.24514 4.26714 1.50004 7.67885 1.50004V0.500044ZM10.9621 1.28583C9.95342 0.771299 8.81869 0.500044 7.67885 0.500044V1.50004C8.6621 1.50004 9.64096 1.7345 10.5077 2.17664L10.9621 1.28583ZM12.8588 2.68815C12.3096 2.12212 11.6659 1.64486 10.9621 1.28584L10.5077 2.17663C11.1126 2.48517 11.6675 2.89641 12.1412 3.38455L12.8588 2.68815ZM14.0379 1.28579C13.3341 1.64481 12.6904 2.12207 12.1412 2.68816L12.8588 3.38454C13.3325 2.89637 13.8874 2.48513 14.4923 2.1766L14.0379 1.28579ZM17.1188 17.7743C15.0805 19.7002 13.0117 20.9299 12.257 21.3488L12.7423 22.2231C13.5367 21.7822 15.684 20.5057 17.8056 18.5012L17.1188 17.7743ZM22.131 7.60698C22.131 11.1827 20.4761 14.6021 17.1188 17.7743L17.8055 18.5012C21.3077 15.1921 23.131 11.5254 23.131 7.60698H22.131ZM17.3211 2.85431C19.9779 2.85431 22.131 4.99189 22.131 7.60698H23.131C23.131 4.42943 20.52 1.85431 17.3211 1.85431V2.85431ZM13.4506 4.786C14.3692 3.55793 15.7772 2.85431 17.3211 2.85431V1.85431C15.4638 1.85431 13.7584 2.70506 12.6499 4.18702L13.4506 4.786ZM12.5 5.26087C12.8733 5.26087 13.2263 5.08578 13.4506 4.78605L12.6499 4.18697C12.6159 4.23235 12.5606 4.26087 12.5 4.26087V5.26087ZM11.5494 4.786C11.7737 5.08587 12.1268 5.26087 12.5 5.26087V4.26087C12.4393 4.26087 12.384 4.23235 12.3501 4.18702L11.5494 4.786ZM7.67885 2.85435C9.22283 2.85435 10.6307 3.55793 11.5494 4.78601L12.3501 4.18701C11.2416 2.70506 9.53618 1.85435 7.67885 1.85435V2.85435ZM2.86904 7.60698C2.86904 4.99193 5.02205 2.85435 7.67885 2.85435V1.85435C4.48 1.85435 1.86904 4.42947 1.86904 7.60698H2.86904ZM7.90708 17.7988C4.53234 14.62 2.86904 11.1925 2.86904 7.60698H1.86904C1.86904 11.5361 3.70165 15.2113 7.22143 18.5267L7.90708 17.7988ZM12.742 21.3486C11.992 20.933 9.94286 19.7162 7.90707 17.7987L7.22144 18.5267C9.33994 20.5221 11.4669 21.7853 12.2573 22.2233L12.742 21.3486Z" fill="white"/>
<path d="M17.698 8.89774C17.4544 8.61202 17.0367 8.58808 16.7651 8.84425L12.2633 13.0894L10.6163 10.852C10.393 10.5486 9.97809 10.493 9.68958 10.7279C9.40107 10.9628 9.34831 11.3992 9.57162 11.7027L11.6532 14.5306C11.7655 14.6832 11.9331 14.7798 12.1158 14.7972C12.1358 14.7991 12.1557 14.8001 12.1756 14.8001C12.3376 14.8001 12.4948 14.7374 12.6166 14.6226L17.6471 9.87891C17.9187 9.6227 17.9415 9.18345 17.698 8.89774Z" fill="white" stroke="white"/>
</svg>
