<svg width="26" height="26" viewBox="0 0 26 26" fill="none" xmlns="http://www.w3.org/2000/svg">
<path d="M26 13C26 11.437 25.714 9.93977 25.1914 8.55558L13 8L0.80859 8.55553C0.286051 9.93977 0 11.437 0 13C0 14.563 0.286051 16.0602 0.80859 17.4444L13 18L25.1914 17.4445C25.714 16.0602 26 14.563 26 13Z" fill="#496E2D"/>
<path d="M13 26C18.5018 26 23.192 22.255 25 17H1C2.80797 22.255 7.49822 26 13 26Z" fill="#D80027"/>
<path d="M1 9H25C23.192 3.74496 18.5017 0 13 0C7.4982 0 2.80797 3.74496 1 9Z" fill="#F0F0F0"/>
</svg>
