<svg width="25" height="24" viewBox="0 0 25 24" fill="none" xmlns="http://www.w3.org/2000/svg">
<path fill-rule="evenodd" clip-rule="evenodd" d="M14.2651 1.73119C15.2028 1.25286 16.2596 1 17.3212 1C21.0039 1.00004 24 3.96391 24 7.60698C24 9.89348 23.4036 12.1399 22.2272 14.2838C21.2959 15.981 20.0015 17.616 18.3797 19.1435C15.6347 21.7291 12.9237 23.1029 12.8096 23.1601C12.7123 23.2089 12.6062 23.2333 12.5 23.2333C12.3938 23.2333 12.2877 23.2089 12.1904 23.1601C12.0763 23.1029 9.36535 21.7292 6.62022 19.1436C4.9985 17.6161 3.70403 15.981 2.7728 14.2839C1.59643 12.1399 1 9.89352 1 7.60698C1 3.96391 3.99611 1.00004 7.67885 1.00004C8.7404 1.00004 9.79719 1.2529 10.7349 1.73124C11.3893 2.06501 11.9885 2.50926 12.5 3.03635C13.0115 2.50922 13.6107 2.06497 14.2651 1.73119ZM12.4996 21.786C13.2742 21.356 15.3823 20.103 17.4622 18.1377C20.8919 14.8971 22.631 11.354 22.631 7.60698C22.631 4.71066 20.249 2.35431 17.3211 2.35431C15.6205 2.35431 14.0638 3.13149 13.0502 4.48651C12.9211 4.65907 12.717 4.76087 12.5 4.76087C12.283 4.76087 12.0789 4.65911 11.9498 4.48651C10.9361 3.13149 9.3795 2.35435 7.67885 2.35435C4.75102 2.35435 2.36904 4.7107 2.36904 7.60698C2.36904 11.3643 4.11699 14.9157 7.56425 18.1627C9.6414 20.1191 11.7295 21.3592 12.4996 21.786Z" fill="white"/>
<path d="M17.3212 1L17.3212 0.75H17.3212V1ZM14.2651 1.73119L14.3787 1.95389L14.3787 1.95389L14.2651 1.73119ZM22.2272 14.2838L22.008 14.1636L22.008 14.1636L22.2272 14.2838ZM18.3797 19.1435L18.2083 18.9615L18.2083 18.9615L18.3797 19.1435ZM12.8096 23.1601L12.6975 22.9366L12.6974 22.9366L12.8096 23.1601ZM12.1904 23.1601L12.0783 23.3835L12.0784 23.3836L12.1904 23.1601ZM6.62022 19.1436L6.79163 18.9616L6.62022 19.1436ZM2.7728 14.2839L2.55362 14.4041L2.55362 14.4041L2.7728 14.2839ZM10.7349 1.73124L10.8485 1.50854L10.8485 1.50853L10.7349 1.73124ZM12.5 3.03635L12.3206 3.21045L12.5 3.39534L12.6794 3.21044L12.5 3.03635ZM17.4622 18.1377L17.2905 17.956V17.956L17.4622 18.1377ZM12.4996 21.786L12.3785 22.0046L12.4997 22.0718L12.621 22.0046L12.4996 21.786ZM13.0502 4.48651L13.2504 4.63628L13.2504 4.63626L13.0502 4.48651ZM11.9498 4.48651L12.1499 4.33677L12.1499 4.33676L11.9498 4.48651ZM7.56425 18.1627L7.39284 18.3447L7.39285 18.3447L7.56425 18.1627ZM17.3212 0.75C16.2205 0.75 15.1247 1.01205 14.1515 1.50849L14.3787 1.95389C15.2809 1.49366 16.2988 1.25 17.3212 1.25V0.75ZM24.25 7.60698C24.25 3.8233 21.1394 0.750046 17.3212 0.75L17.3212 1.25C20.8684 1.25004 23.75 4.10453 23.75 7.60698H24.25ZM22.4463 14.4041C23.6415 12.226 24.25 9.93843 24.25 7.60698H23.75C23.75 9.84853 23.1656 12.0539 22.008 14.1636L22.4463 14.4041ZM18.5511 19.3255C20.1891 17.7827 21.5008 16.1274 22.4463 14.4041L22.008 14.1636C21.0911 15.8346 19.8139 17.4494 18.2083 18.9615L18.5511 19.3255ZM12.9216 23.3836C13.0463 23.321 15.7812 21.9345 18.5511 19.3255L18.2083 18.9615C15.4881 21.5237 12.801 22.8847 12.6975 22.9366L12.9216 23.3836ZM12.5 23.4833C12.6445 23.4833 12.7891 23.4501 12.9217 23.3835L12.6974 22.9366C12.6354 22.9677 12.5678 22.9833 12.5 22.9833V23.4833ZM12.0784 23.3836C12.211 23.4501 12.3555 23.4833 12.5 23.4833V22.9833C12.4322 22.9833 12.3645 22.9677 12.3024 22.9366L12.0784 23.3836ZM6.44881 19.3256C9.21882 21.9346 11.9537 23.321 12.0783 23.3835L12.3025 22.9367C12.199 22.8847 9.51188 21.5238 6.79163 18.9616L6.44881 19.3256ZM2.55362 14.4041C3.49918 16.1274 4.81085 17.7828 6.44881 19.3256L6.79163 18.9616C5.18614 17.4494 3.90887 15.8346 2.99197 14.1636L2.55362 14.4041ZM0.75 7.60698C0.75 9.93847 1.35848 12.226 2.55362 14.4041L2.99197 14.1636C1.83438 12.0539 1.25 9.84857 1.25 7.60698H0.75ZM7.67885 0.750044C3.8606 0.750044 0.75 3.8233 0.75 7.60698H1.25C1.25 4.10453 4.13162 1.25004 7.67885 1.25004V0.750044ZM10.8485 1.50853C9.8753 1.0121 8.77955 0.750044 7.67885 0.750044V1.25004C8.70125 1.25004 9.71907 1.4937 10.6213 1.95394L10.8485 1.50853ZM12.6794 2.86225C12.149 2.31569 11.5276 1.85493 10.8485 1.50854L10.6213 1.95393C11.2509 2.27509 11.828 2.70284 12.3206 3.21045L12.6794 2.86225ZM14.1515 1.50849C13.4724 1.85489 12.851 2.31565 12.3206 2.86226L12.6794 3.21044C13.172 2.70279 13.7491 2.27505 14.3787 1.95389L14.1515 1.50849ZM17.2905 17.956C15.2314 19.9016 13.1429 21.143 12.3783 21.5674L12.621 22.0046C13.4054 21.5691 15.5331 20.3043 17.6339 18.3195L17.2905 17.956ZM22.381 7.60698C22.381 11.2684 20.684 14.7496 17.2905 17.956L17.6339 18.3195C21.0998 15.0446 22.881 11.4397 22.881 7.60698H22.381ZM17.3211 2.60431C20.1135 2.60431 22.381 4.85127 22.381 7.60698H22.881C22.881 4.57004 20.3845 2.10431 17.3211 2.10431V2.60431ZM13.2504 4.63626C14.2165 3.34471 15.6988 2.60431 17.3211 2.60431V2.10431C15.5422 2.10431 13.9111 2.91828 12.8501 4.33677L13.2504 4.63626ZM12.5 5.01087C12.7951 5.01087 13.0737 4.87242 13.2504 4.63628L12.8501 4.33674C12.7685 4.44571 12.6388 4.51087 12.5 4.51087V5.01087ZM11.7496 4.63625C11.9263 4.87249 12.2049 5.01087 12.5 5.01087V4.51087C12.3612 4.51087 12.2315 4.44573 12.1499 4.33677L11.7496 4.63625ZM7.67885 2.60435C9.30117 2.60435 10.7834 3.34471 11.7496 4.63626L12.1499 4.33676C11.0888 2.91827 9.45784 2.10435 7.67885 2.10435V2.60435ZM2.61904 7.60698C2.61904 4.85132 4.88653 2.60435 7.67885 2.60435V2.10435C4.61551 2.10435 2.11904 4.57009 2.11904 7.60698H2.61904ZM7.73567 17.9807C4.32467 14.7679 2.61904 11.2784 2.61904 7.60698H2.11904C2.11904 11.4502 3.90932 15.0635 7.39284 18.3447L7.73567 17.9807ZM12.6208 21.5673C11.8607 21.1461 9.79213 19.9177 7.73566 17.9807L7.39285 18.3447C9.49067 20.3206 11.5982 21.5723 12.3785 22.0046L12.6208 21.5673Z" fill="white"/>
<path d="M17.698 8.89749C17.4544 8.61177 17.0367 8.58783 16.7651 8.844L12.2633 13.0892L10.6163 10.8517C10.393 10.5483 9.97809 10.4927 9.68958 10.7277C9.40107 10.9625 9.34831 11.399 9.57162 11.7024L11.6532 14.5304C11.7655 14.6829 11.9331 14.7795 12.1158 14.797C12.1358 14.7989 12.1557 14.7998 12.1756 14.7998C12.3376 14.7998 12.4948 14.7371 12.6166 14.6224L17.6471 9.87867C17.9187 9.62245 17.9415 9.18321 17.698 8.89749Z" fill="white" stroke="white" stroke-width="0.5"/>
</svg>
