<?xml version="1.0" encoding="UTF-8"?>
<svg width="73px" height="73px" viewBox="0 0 73 73" version="1.1" xmlns="http://www.w3.org/2000/svg" xmlns:xlink="http://www.w3.org/1999/xlink">
    <!-- Generator: Sketch 63.1 (92452) - https://sketch.com -->
    <title>noun_Flag_813345</title>
    <desc>Created with Sketch.</desc>
    <g id="Page-1" stroke="none" stroke-width="1" fill="none" fill-rule="evenodd">
        <g id="Desktop-HD" transform="translate(-993.000000, -1067.000000)" fill="#FFFFFF" fill-rule="nonzero">
            <g id="noun_Flag_813345" transform="translate(993.000000, 1067.000000)">
                <path d="M44.7376444,14.5107778 C42.6547111,13.7751 41.4064111,11.8917 39.9602,9.71062222 C38.4393667,7.41598889 36.7149444,4.81556667 33.6878778,3.45452222 C27.3376889,0.600222222 19.9849667,4.23805556 14.6162222,6.89444444 C13.9892333,7.2051 13.3841444,7.50358889 12.8066333,7.78017778 C9.344,9.43727778 7.79477778,9.67006667 7.25782222,9.68791111 L5.06052222,1.63601111 C4.73688889,0.453411111 3.51778889,-0.243333333 2.33194444,0.0786777778 C1.14853333,0.4015 0.450977778,1.62222222 0.7738,2.80644444 L10.0853556,36.9331333 L10.8323889,39.8758444 L10.9865,40.2367889 L19.4796444,71.3623667 C19.7497444,72.3511111 20.6452111,73 21.6217889,73 C21.8156444,73 22.0127444,72.9740444 22.2082222,72.9213222 C23.3916333,72.5985 24.0891889,71.3769667 23.7663667,70.1935556 L16.1281333,42.2004889 C21.5577111,38.4572111 30.4215333,33.3399111 34.5687444,33.3399111 C34.6612111,33.3399111 34.7520556,33.3423444 34.8396556,33.3480222 C35.8608444,33.4080444 35.9654778,33.5321444 36.4562,35.2435889 C37.741,39.7355222 40.2749111,42.0236667 48.9262222,39.5619444 C63.6089556,35.3806667 70.5415222,15.8093667 70.8294667,14.9779778 L72.3056889,10.7172111 L68.0278889,12.1431444 C63.1944778,13.7540111 50.6222556,16.5864111 44.7376444,14.5107778 Z M14.308,34.9564556 C14.2674444,34.9945778 14.2374333,35.0391889 14.2001222,35.0797444 L9.38698889,16.1240778 C12.9696667,17.0511778 16.0965,19.8803333 17.2563889,23.3924444 C18.5630889,27.3514778 17.3512889,32.1070222 14.308,34.9564556 Z M47.7079333,35.2873889 C43.508,36.4829667 42.0715222,36.1041778 41.6481222,35.8868 C41.2368889,35.6742889 41.0511444,35.1551778 40.7275111,34.0212444 C40.2416556,32.3227778 39.3372667,29.1618778 35.1000222,28.9120556 C31.0971889,28.6735889 25.1395778,31.5092333 20.3207667,34.2962111 C22.3201556,30.5724 22.8157444,26.061 21.4741667,21.9997667 C20.0887889,17.8063222 16.8467778,14.3874889 12.8488111,12.6322444 C13.4433556,12.3808 14.0630444,12.1050222 14.7232889,11.7895 C15.3178333,11.5048 15.9407667,11.1973889 16.5856,10.8778111 C21.4165778,8.48746667 27.4252889,5.51068889 31.8661222,7.50764444 C33.7203222,8.34146667 34.9524,10.1997222 36.2566667,12.1666667 C37.9040333,14.6527222 39.7720222,17.4705222 43.2589889,18.7009778 C49.0446444,20.7425444 58.6741556,19.1592556 64.8637444,17.6441 C62.1716667,23.2342778 56.4176444,32.8078222 47.7079333,35.2873889 Z" id="Shape"></path>
            </g>
        </g>
    </g>
</svg>