<svg width="24" height="25" viewBox="0 0 24 25" fill="none" xmlns="http://www.w3.org/2000/svg">
<path fill-rule="evenodd" clip-rule="evenodd" d="M20.4854 16.0794C19.1088 14.7524 17.4563 13.7883 15.653 13.2352C17.8614 12.0112 19.3517 9.71357 19.3517 7.08677C19.3518 3.17915 16.0538 0 12.0001 0C7.94636 0 4.64841 3.17915 4.64841 7.08677C4.64841 9.71362 6.13879 12.0112 8.34713 13.2352C6.54382 13.7883 4.89135 14.7523 3.51469 16.0794C1.2482 18.2643 0 21.1691 0 24.2589C0 24.6682 0.344241 25 0.768818 25H23.2312C23.6558 25 24 24.6682 24 24.2589C24.0001 21.169 22.7519 18.2642 20.4854 16.0794ZM6.18605 7.08677C6.18605 3.99644 8.79425 1.48223 12.0001 1.48223C15.206 1.48223 17.8142 3.99644 17.8142 7.08677C17.8142 10.1771 15.206 12.6913 12.0001 12.6913C8.79425 12.6913 6.18605 10.1771 6.18605 7.08677ZM12.0001 14.1735C6.48957 14.1735 1.96039 18.3012 1.56565 23.5178H22.4346C22.0398 18.3012 17.5106 14.1735 12.0001 14.1735Z" fill="white"/>
<path d="M12.4138 10C11.9813 10 11.5669 10.3833 11.5869 10.8333C11.6069 11.2848 11.9502 11.6667 12.4138 11.6667C12.8463 11.6667 13.2607 11.2834 13.2407 10.8333C13.2206 10.3819 12.8773 10 12.4138 10Z" fill="white"/>
<path d="M12 3.33331C10.8591 3.33331 9.93103 4.38537 9.93103 5.67853C9.93103 6.09573 10.2295 6.43399 10.5975 6.43399C10.9656 6.43399 11.264 6.09573 11.264 5.67853C11.264 5.21853 11.5942 4.84423 12 4.84423C12.4058 4.84423 12.736 5.21848 12.736 5.67853C12.736 6.13859 12.4058 6.51283 12 6.51283C11.6319 6.51283 11.3335 6.85109 11.3335 7.26829V8.41119C11.3335 8.82839 11.6319 9.16665 12 9.16665C12.3681 9.16665 12.6665 8.82839 12.6665 8.41119V7.89887C13.4814 7.58381 14.069 6.70745 14.069 5.67853C14.069 4.38537 13.1409 3.33331 12 3.33331Z" fill="white"/>
</svg>
