<svg width="22" height="22" viewBox="0 0 22 22" fill="none" xmlns="http://www.w3.org/2000/svg">
<path d="M21.2143 14.9287C20.7803 14.9287 20.4286 15.2805 20.4286 15.7144V19.643C20.4286 20.0769 20.0768 20.4287 19.6429 20.4287H2.35714C1.9232 20.4287 1.57143 20.0769 1.57143 19.643V15.7144C1.57143 15.2805 1.21965 14.9287 0.785714 14.9287C0.351776 14.9287 0 15.2805 0 15.7144V19.643C0 20.9448 1.05533 22.0001 2.35714 22.0001H19.6429C20.9447 22.0001 22 20.9448 22 19.643V15.7144C22 15.2805 21.6482 14.9287 21.2143 14.9287Z" fill="white"/>
<path d="M10.4421 17.8436C10.7485 18.1482 11.2435 18.1482 11.5499 17.8436L17.0499 12.3436C17.3169 12.0318 17.2989 11.5671 17.0087 11.2769C16.7185 10.9867 16.2538 10.9687 15.9421 11.2357L11.7856 15.3921V0.785714C11.7856 0.351776 11.4339 0 10.9999 0C10.566 0 10.2142 0.351776 10.2142 0.785714V15.3921L6.05778 11.2279C5.74604 10.9609 5.28134 10.9788 4.99112 11.2691C4.7009 11.5593 4.68295 12.024 4.94992 12.3357L10.4421 17.8436Z" fill="white"/>
</svg>
