<svg width="12" height="11" viewBox="0 0 12 11" fill="none" xmlns="http://www.w3.org/2000/svg">
<path fill-rule="evenodd" clip-rule="evenodd" d="M0.9 0.152832C0.402945 0.152832 0 0.563224 0 1.0695C0 1.57574 0.402945 1.98617 0.9 1.98617H11.1C11.5971 1.98617 12 1.57574 12 1.0695C12 0.563224 11.5971 0.152832 11.1 0.152832H0.9ZM0.9 4.58339C0.402945 4.58339 0 4.99378 0 5.50006C0 6.0063 0.402945 6.41672 0.9 6.41672H11.1C11.5971 6.41672 12 6.0063 12 5.50006C12 4.99378 11.5971 4.58339 11.1 4.58339H0.9ZM0 9.93061C0 9.42434 0.402945 9.01395 0.9 9.01395H11.1C11.5971 9.01395 12 9.42434 12 9.93061C12 10.4369 11.5971 10.8473 11.1 10.8473H0.9C0.402945 10.8473 0 10.4369 0 9.93061Z" fill="black"/>
</svg>
