<svg width="14" height="14" viewBox="0 0 14 14" fill="none" xmlns="http://www.w3.org/2000/svg">
<path d="M13.8561 13.8597V13.8591H13.8596V8.77607C13.8596 6.28942 13.3243 4.3739 10.4172 4.3739C9.01969 4.3739 8.08186 5.1408 7.69898 5.86786H7.65856V4.60605H4.90222V13.8591H7.77232V9.27733C7.77232 8.07096 8.00101 6.90444 9.49496 6.90444C10.967 6.90444 10.9889 8.28117 10.9889 9.35471V13.8597H13.8561Z" fill="white"/>
<path d="M0.228638 4.60657H3.10221V13.8596H0.228638L0.228638 4.60657Z" fill="white"/>
<path d="M1.66431 0C0.745534 0 0 0.745534 0 1.66431C0 2.58309 0.745534 3.34422 1.66431 3.34422C2.58309 3.34422 3.32863 2.58309 3.32863 1.66431C3.32805 0.745534 2.58251 0 1.66431 0Z" fill="white"/>
</svg>
