<svg width="12" height="9" viewBox="0 0 12 9" fill="none" xmlns="http://www.w3.org/2000/svg">
<path d="M0.265263 3.88193L3.96632 0.250947C4.30737 -0.0836487 4.87579 -0.0836487 5.21684 0.250947C5.55789 0.585543 5.55789 1.1432 5.21684 1.4778L3.03158 3.63408L11.1158 3.63408C11.6084 3.63408 12 4.01824 12 4.50155C12 4.98485 11.6084 5.36902 11.1158 5.36902L3.03158 5.36902L5.21684 7.51291C5.55789 7.8475 5.55789 8.40516 5.21684 8.73976C5.04 8.91325 4.81263 9 4.58526 9C4.35789 9 4.13053 8.91325 3.95368 8.73976L0.265263 5.12117C0.101053 4.96007 0 4.73701 0 4.50155C0 4.26609 0.0884211 4.04303 0.265263 3.88193Z" fill="white"/>
</svg>
