<svg width="18" height="30" viewBox="0 0 18 30" fill="none" xmlns="http://www.w3.org/2000/svg">
<path fill-rule="evenodd" clip-rule="evenodd" d="M0 14.0246C0 9.08292 4.03738 5.0625 9.00003 5.0625C13.9627 5.0625 18 9.08292 18 14.0246C18 17.055 16.4462 19.8875 13.9128 21.5347V24.3581C13.9128 27.0555 11.709 29.25 9.00014 29.25C6.29129 29.25 4.08747 27.0555 4.08747 24.3581V22.7723L4.08753 21.5348C1.55385 19.8876 0 17.0552 0 14.0246ZM5.82235 24.3582C5.82235 26.103 7.24784 27.5224 9.00003 27.5224C10.7522 27.5224 12.1777 26.1029 12.1777 24.3582V23.6361H5.82235V24.3582ZM5.82235 21.0515C5.82235 20.7421 5.65634 20.4565 5.387 20.3024C3.13435 19.0138 1.73494 16.6083 1.73483 14.0246C1.73483 10.0355 4.99388 6.79018 8.99986 6.79018C13.0058 6.79018 16.2649 10.0356 16.2649 14.0246C16.2649 16.6082 14.8656 19.0137 12.6129 20.3024C12.3436 20.4565 12.1776 20.7422 12.1776 21.0514V21.9084H9.86753V17.4415C10.994 17.0766 11.8107 16.0216 11.8107 14.7798C11.8107 14.3027 11.4222 13.9159 10.9432 13.9159C10.4641 13.9159 10.0757 14.3027 10.0757 14.7798C10.0757 15.3704 9.59309 15.8509 9.00003 15.8509C8.40697 15.8509 7.92445 15.3703 7.92445 14.7798C7.92445 14.3027 7.53603 13.9159 7.05695 13.9159C6.57787 13.9159 6.18945 14.3027 6.18945 14.7798C6.18945 16.0216 7.00618 17.0766 8.13259 17.4415V21.9084H5.82235V21.0515Z" fill="white"/>
<path d="M9.28125 0C9.74721 0 10.125 0.402381 10.125 0.898678V2.47632C10.125 2.97262 9.74721 3.375 9.28125 3.375C8.81529 3.375 8.4375 2.97262 8.4375 2.47632V0.898678C8.4375 0.402381 8.81523 0 9.28125 0Z" fill="white"/>
<path d="M11.3057 2.68318L11.8385 1.16165C12.0061 0.683036 12.5016 0.441708 12.9449 0.622566C13.3883 0.803485 13.6119 1.33816 13.4443 1.81678L12.9116 3.33831C12.7817 3.70909 12.4552 3.9375 12.1085 3.9375C12.0077 3.9375 11.905 3.91816 11.8051 3.8774C11.3617 3.69648 11.1381 3.1618 11.3057 2.68318Z" fill="white"/>
<path d="M5.05517 0.622607C5.49865 0.441629 5.99396 0.683137 6.16157 1.16175L6.69436 2.68326C6.86192 3.16181 6.63828 3.69648 6.19486 3.8774C6.09495 3.91816 5.99237 3.9375 5.89155 3.9375C5.54475 3.9375 5.21825 3.70909 5.08846 3.33832L4.55567 1.81681C4.38806 1.33813 4.61169 0.803524 5.05517 0.622607Z" fill="white"/>
</svg>
